{
	"photos": {
		"page": 1,
		"pages": 70228,
		"perpage": 30,
		"total": "2106834",
		"photo": [
			{
				"id": "5340131446",
				"owner": "58130019@N08",
				"secret": "3b7c380bea",
				"server": "5244",
				"farm": 6,
				"title": "dog",
				"ispublic": 1,
				"isfriend": 0,
				"isfamily": 0
			},
			{
				"id": "4489119695",
				"owner": "62371205@N00",
				"secret": "87144ba60b",
				"server": "4026",
				"farm": 5,
				"title": "dog",
				"ispublic": 1,
				"isfriend": 0,
				"isfamily": 0
			},
			{
				"id": "4846208207",
				"owner": "21692577@N02",
				"secret": "eb7d525741",
				"server": "4131",
				"farm": 5,
				"title": "Dog",
				"ispublic": 1,
				"isfriend": 0,
				"isfamily": 0
			}
		]
	},
	"stat": "ok"
}
